%YAML 1.1
%TAG !u! tag:unity3d.com,2011:
--- !u!114 &11400000
MonoBehaviour:
  m_ObjectHideFlags: 0
  m_CorrespondingSourceObject: {fileID: 0}
  m_PrefabInstance: {fileID: 0}
  m_PrefabAsset: {fileID: 0}
  m_GameObject: {fileID: 0}
  m_Enabled: 1
  m_EditorHideFlags: 0
  m_Script: {fileID: 11500000, guid: c6da715de27cce246ab6b624f63fadf6, type: 3}
  m_Name: Continue
  m_EditorClassIdentifier: 
  fraseKey: Continue
  caps: 1
  defaultStr: CONTINUE
  defaultFont: {fileID: 0}
  lines:
  - val: "\u041F\u0420\u041E\u0414\u041E\u041B\u0416\u0418\u0422\u042C"
    language: 30
    font: {fileID: 0}
  - val: CONTINUAR
    language: 34
    font: {fileID: 0}
  - val: "CONTINUER\r"
    language: 14
    font: {fileID: 0}
