%YAML 1.1
%TAG !u! tag:unity3d.com,2011:
--- !u!114 &11400000
MonoBehaviour:
  m_ObjectHideFlags: 0
  m_CorrespondingSourceObject: {fileID: 0}
  m_PrefabInstance: {fileID: 0}
  m_PrefabAsset: {fileID: 0}
  m_GameObject: {fileID: 0}
  m_Enabled: 1
  m_EditorHideFlags: 0
  m_Script: {fileID: 11500000, guid: c6da715de27cce246ab6b624f63fadf6, type: 3}
  m_Name: music
  m_EditorClassIdentifier: 
  fraseKey: music
  caps: 0
  defaultStr: Music
  defaultFont: {fileID: 0}
  lines:
  - val: "\u041C\u0443\u0437\u044B\u043A\u0430"
    language: 30
    font: {fileID: 0}
  - val: Musica
    language: 34
    font: {fileID: 0}
  - val: Musique
    language: 14
    font: {fileID: 0}
