%YAML 1.1
%TAG !u! tag:unity3d.com,2011:
--- !u!114 &11400000
MonoBehaviour:
  m_ObjectHideFlags: 0
  m_CorrespondingSourceObject: {fileID: 0}
  m_PrefabInstance: {fileID: 0}
  m_PrefabAsset: {fileID: 0}
  m_GameObject: {fileID: 0}
  m_Enabled: 1
  m_EditorHideFlags: 0
  m_Script: {fileID: 11500000, guid: c6da715de27cce246ab6b624f63fadf6, type: 3}
  m_Name: NewShape
  m_EditorClassIdentifier: 
  fraseKey: new_shape
  caps: 1
  defaultStr: NEW SHAPE!
  defaultFont: {fileID: 0}
  lines:
  - val: "\u041D\u041E\u0412\u0410\u042F \u0424\u041E\u0420\u041C\u0410!"
    language: 30
    font: {fileID: 0}
  - val: "\xA1NUEVA FORMA!"
    language: 34
    font: {fileID: 0}
  - val: "NOUVELLE FORME!\r"
    language: 14
    font: {fileID: 0}
