%YAML 1.1
%TAG !u! tag:unity3d.com,2011:
--- !u!114 &11400000
MonoBehaviour:
  m_ObjectHideFlags: 0
  m_CorrespondingSourceObject: {fileID: 0}
  m_PrefabInstance: {fileID: 0}
  m_PrefabAsset: {fileID: 0}
  m_GameObject: {fileID: 0}
  m_Enabled: 1
  m_EditorHideFlags: 0
  m_Script: {fileID: 11500000, guid: c6da715de27cce246ab6b624f63fadf6, type: 3}
  m_Name: NoThanks
  m_EditorClassIdentifier: 
  fraseKey: NoThanks
  caps: 1
  defaultStr: NO THANKS
  defaultFont: {fileID: 0}
  lines:
  - val: "\u041D\u0415\u0422, \u0421\u041F\u0410\u0421\u0418\u0411\u041E"
    language: 30
    font: {fileID: 0}
  - val: NO GRACIAS
    language: 34
    font: {fileID: 0}
  - val: "NON MERCI\r"
    language: 14
    font: {fileID: 0}
