%YAML 1.1
%TAG !u! tag:unity3d.com,2011:
--- !u!114 &11400000
MonoBehaviour:
  m_ObjectHideFlags: 0
  m_CorrespondingSourceObject: {fileID: 0}
  m_PrefabInstance: {fileID: 0}
  m_PrefabAsset: {fileID: 0}
  m_GameObject: {fileID: 0}
  m_Enabled: 1
  m_EditorHideFlags: 0
  m_Script: {fileID: 11500000, guid: c6da715de27cce246ab6b624f63fadf6, type: 3}
  m_Name: pentagonFrase
  m_EditorClassIdentifier: 
  fraseKey: pentagon
  caps: 0
  defaultStr: Pentagon
  defaultFont: {fileID: 0}
  lines:
  - val: "\u043F\u044F\u0442\u0438\u0443\u0433\u043E\u043B\u044C\u043D\u0438\u043A"
    language: 30
    font: {fileID: 0}
  - val: "Pent\xE1gono"
    language: 34
    font: {fileID: 0}
  - val: "Pentagone\r"
    language: 14
    font: {fileID: 0}
