%YAML 1.1
%TAG !u! tag:unity3d.com,2011:
--- !u!114 &11400000
MonoBehaviour:
  m_ObjectHideFlags: 0
  m_CorrespondingSourceObject: {fileID: 0}
  m_PrefabInstance: {fileID: 0}
  m_PrefabAsset: {fileID: 0}
  m_GameObject: {fileID: 0}
  m_Enabled: 1
  m_EditorHideFlags: 0
  m_Script: {fileID: 11500000, guid: 1eb812d9f5330644fba86d64e358e5d3, type: 3}
  m_Name: triangle
  m_EditorClassIdentifier: 
  SecretUniqueKey: 
  type: 0
  icon: {fileID: 21300000, guid: a15406bfd19193241be9723d426a1e87, type: 3}
  isOpenOnStart: 0
  shape: 2
  label: {fileID: 11400000, guid: eef65f2f67d84834db598acd3f675147, type: 2}
