%YAML 1.1
%TAG !u! tag:unity3d.com,2011:
--- !u!114 &11400000
MonoBehaviour:
  m_ObjectHideFlags: 0
  m_CorrespondingSourceObject: {fileID: 0}
  m_PrefabInstance: {fileID: 0}
  m_PrefabAsset: {fileID: 0}
  m_GameObject: {fileID: 0}
  m_Enabled: 1
  m_EditorHideFlags: 0
  m_Script: {fileID: 11500000, guid: 1eb812d9f5330644fba86d64e358e5d3, type: 3}
  m_Name: rectangle
  m_EditorClassIdentifier: 
  SecretUniqueKey: 5d1203d0-53d3-4762-81af-7d689ae93fc0
  type: 0
  icon: {fileID: 21300000, guid: 851dd3dd5925ef04681f20ca4f9943f2, type: 3}
  isOpenOnStart: 0
  shape: 1
  label: {fileID: 11400000, guid: 0555685130b677c48a87fcb656364cf3, type: 2}
