%YAML 1.1
%TAG !u! tag:unity3d.com,2011:
--- !u!114 &11400000
MonoBehaviour:
  m_ObjectHideFlags: 0
  m_CorrespondingSourceObject: {fileID: 0}
  m_PrefabInstance: {fileID: 0}
  m_PrefabAsset: {fileID: 0}
  m_GameObject: {fileID: 0}
  m_Enabled: 1
  m_EditorHideFlags: 0
  m_Script: {fileID: 11500000, guid: c6da715de27cce246ab6b624f63fadf6, type: 3}
  m_Name: newerRate
  m_EditorClassIdentifier: 
  fraseKey: newer
  caps: 0
  defaultStr: Newer
  defaultFont: {fileID: 0}
  lines:
  - val: "\u041D\u0438\u043A\u043E\u0433\u0434\u0430"
    language: 30
    font: {fileID: 0}
  - val: "M\xE1s nuevo"
    language: 34
    font: {fileID: 0}
  - val: "r\xE9cent\r"
    language: 14
    font: {fileID: 0}
