%YAML 1.1
%TAG !u! tag:unity3d.com,2011:
--- !u!114 &11400000
MonoBehaviour:
  m_ObjectHideFlags: 0
  m_CorrespondingSourceObject: {fileID: 0}
  m_PrefabInstance: {fileID: 0}
  m_PrefabAsset: {fileID: 0}
  m_GameObject: {fileID: 0}
  m_Enabled: 1
  m_EditorHideFlags: 0
  m_Script: {fileID: 11500000, guid: c6da715de27cce246ab6b624f63fadf6, type: 3}
  m_Name: rateText
  m_EditorClassIdentifier: 
  fraseKey: message
  caps: 0
  defaultStr: Leave your review<br> if you like the game!
  defaultFont: {fileID: 0}
  lines:
  - val: "\u041E\u0441\u0442\u0430\u0432\u044C\u0442\u0435 \u0441\u0432\u043E\u0439
      \u043E\u0442\u0437\u044B\u0432,<br> \u0435\u0441\u043B\u0438 \u0432\u0430\u043C
      \u043D\u0440\u0430\u0432\u0438\u0442\u0441\u044F \u0438\u0433\u0440\u0430!"
    language: 30
    font: {fileID: 0}
  - val: Deje un comentario<br> si te gusta el juego!
    language: 34
    font: {fileID: 0}
  - val: Laissez votre commentaire<br> si vous aimez le jeu!
    language: 14
    font: {fileID: 0}
