%YAML 1.1
%TAG !u! tag:unity3d.com,2011:
--- !u!114 &11400000
MonoBehaviour:
  m_ObjectHideFlags: 0
  m_CorrespondingSourceObject: {fileID: 0}
  m_PrefabInstance: {fileID: 0}
  m_PrefabAsset: {fileID: 0}
  m_GameObject: {fileID: 0}
  m_Enabled: 1
  m_EditorHideFlags: 0
  m_Script: {fileID: 11500000, guid: c6da715de27cce246ab6b624f63fadf6, type: 3}
  m_Name: rateHeader
  m_EditorClassIdentifier: 
  fraseKey: header
  caps: 1
  defaultStr: rate us please!
  defaultFont: {fileID: 0}
  lines:
  - val: "\u041E\u0446\u0435\u043D\u0438\u0442\u0435 \u043D\u0430\u0441 \u043F\u043E\u0436\u0430\u043B\u0443\u0439\u0441\u0442\u0430!"
    language: 30
    font: {fileID: 0}
  - val: "nos clasificar\xEDa por favor!"
    language: 34
    font: {fileID: 0}
  - val: "nous noter s'il vous pla\xEEt!\r"
    language: 14
    font: {fileID: 0}
