%YAML 1.1
%TAG !u! tag:unity3d.com,2011:
--- !u!114 &11400000
MonoBehaviour:
  m_ObjectHideFlags: 0
  m_CorrespondingSourceObject: {fileID: 0}
  m_PrefabInstance: {fileID: 0}
  m_PrefabAsset: {fileID: 0}
  m_GameObject: {fileID: 0}
  m_Enabled: 1
  m_EditorHideFlags: 0
  m_Script: {fileID: 11500000, guid: 1eb812d9f5330644fba86d64e358e5d3, type: 3}
  m_Name: semicircle
  m_EditorClassIdentifier: 
  SecretUniqueKey: 
  type: 0
  icon: {fileID: 21300000, guid: a19bd889fbaf027458a91e17a7a58ddf, type: 3}
  isOpenOnStart: 0
  shape: 4
  label: {fileID: 11400000, guid: 0b9f71f4ce9a6044c902c6d97e0d6be0, type: 2}
