%YAML 1.1
%TAG !u! tag:unity3d.com,2011:
--- !u!114 &11400000
MonoBehaviour:
  m_ObjectHideFlags: 0
  m_CorrespondingSourceObject: {fileID: 0}
  m_PrefabInstance: {fileID: 0}
  m_PrefabAsset: {fileID: 0}
  m_GameObject: {fileID: 0}
  m_Enabled: 1
  m_EditorHideFlags: 0
  m_Script: {fileID: 11500000, guid: 076a3aef5e1760344bd15d46e485575e, type: 3}
  m_Name: AdsPlacementRewarded
  m_EditorClassIdentifier: 
  placementKey: GlobalRewarded
  enabled:
    desktop: 1
    ios: 1
    android: 1
  activeWhenNoAds: 0
  androidKey: 24f7066c1e8a4afaadd5b0716853b8a7
  iosKey: a490fb92ad4c4361bac2ad1dc523d06a
  desktopKey: test
