%YAML 1.1
%TAG !u! tag:unity3d.com,2011:
--- !u!1 &3461934469545713474
GameObject:
  m_ObjectHideFlags: 0
  m_CorrespondingSourceObject: {fileID: 0}
  m_PrefabInstance: {fileID: 0}
  m_PrefabAsset: {fileID: 0}
  serializedVersion: 6
  m_Component:
  - component: {fileID: 3461934469545713475}
  - component: {fileID: 3461934469545713472}
  - component: {fileID: 3461934469545713473}
  m_Layer: 0
  m_Name: GameSettings
  m_TagString: Untagged
  m_Icon: {fileID: 0}
  m_NavMeshLayer: 0
  m_StaticEditorFlags: 4294967295
  m_IsActive: 1
--- !u!4 &3461934469545713475
Transform:
  m_ObjectHideFlags: 0
  m_CorrespondingSourceObject: {fileID: 0}
  m_PrefabInstance: {fileID: 0}
  m_PrefabAsset: {fileID: 0}
  m_GameObject: {fileID: 3461934469545713474}
  m_LocalRotation: {x: 0, y: 0, z: 0, w: 1}
  m_LocalPosition: {x: 0, y: 0, z: 0}
  m_LocalScale: {x: 1, y: 1, z: 1}
  m_Children: []
  m_Father: {fileID: 0}
  m_RootOrder: 0
  m_LocalEulerAnglesHint: {x: 0, y: 0, z: 0}
--- !u!114 &3461934469545713472
MonoBehaviour:
  m_ObjectHideFlags: 0
  m_CorrespondingSourceObject: {fileID: 0}
  m_PrefabInstance: {fileID: 0}
  m_PrefabAsset: {fileID: 0}
  m_GameObject: {fileID: 3461934469545713474}
  m_Enabled: 1
  m_EditorHideFlags: 0
  m_GeneratorAsset: {fileID: 0}
  m_Script: {fileID: 11500000, guid: 621a78f3d20159b42aed538e4aa9bb06, type: 3}
  m_Name: 
  m_EditorClassIdentifier: 
  callbacks: {fileID: 3461934469545713473}
  settingsData: {fileID: 11400000, guid: 132464b0af7a4154d8162409529e4bf2, type: 2}
  serviceData: {fileID: 11400000, guid: 744c5069a8e0ed244b75cf413a6a0c48, type: 2}
  ui: {fileID: 0}
--- !u!114 &3461934469545713473
MonoBehaviour:
  m_ObjectHideFlags: 0
  m_CorrespondingSourceObject: {fileID: 0}
  m_PrefabInstance: {fileID: 0}
  m_PrefabAsset: {fileID: 0}
  m_GameObject: {fileID: 3461934469545713474}
  m_Enabled: 1
  m_EditorHideFlags: 0
  m_GeneratorAsset: {fileID: 0}
  m_Script: {fileID: 11500000, guid: c6575acd5bb6d1548a8b656c212fee41, type: 3}
  m_Name: 
  m_EditorClassIdentifier: 
  configVersion: {fileID: 0}
