%YAML 1.1
%TAG !u! tag:unity3d.com,2011:
--- !u!114 &11400000
MonoBehaviour:
  m_ObjectHideFlags: 0
  m_CorrespondingSourceObject: {fileID: 0}
  m_PrefabInstance: {fileID: 0}
  m_PrefabAsset: {fileID: 0}
  m_GameObject: {fileID: 0}
  m_Enabled: 1
  m_EditorHideFlags: 0
  m_Script: {fileID: 11500000, guid: e16edc22fd1b95e49aaef450f0cf6f78, type: 3}
  m_Name: RemoteSettings
  m_EditorClassIdentifier: 
  configVersion: 1.0.0
  adsEnables: 1
  interstitialFrequency: 4
  enemySpeed: 3.2
