%YAML 1.1
%TAG !u! tag:unity3d.com,2011:
--- !u!114 &11400000
MonoBehaviour:
  m_ObjectHideFlags: 0
  m_CorrespondingSourceObject: {fileID: 0}
  m_PrefabInstance: {fileID: 0}
  m_PrefabAsset: {fileID: 0}
  m_GameObject: {fileID: 0}
  m_Enabled: 1
  m_EditorHideFlags: 0
  m_Script: {fileID: 11500000, guid: 31290b0cd8a4db946ab25adc4503f793, type: 3}
  m_Name: LocalizedRateDatabase
  m_EditorClassIdentifier: 
  langsForExport: 0a0000001e000000220000000e000000
  showLangs: 01010101
  frases:
  - {fileID: 11400000, guid: 62abbb0085e324846a63d0ddd9e3ba41, type: 2}
  - {fileID: 11400000, guid: 9378ec6cd314da54eb4018b453a92eda, type: 2}
  - {fileID: 11400000, guid: ab22933648807294c9f53522525308d7, type: 2}
  - {fileID: 11400000, guid: 8918359bf2a30a44cad303e0531f0c65, type: 2}
  - {fileID: 11400000, guid: a4a0da237a85afb4d8f334726b8277a4, type: 2}
