%YAML 1.1
%TAG !u! tag:unity3d.com,2011:
--- !u!114 &11400000
MonoBehaviour:
  m_ObjectHideFlags: 0
  m_CorrespondingSourceObject: {fileID: 0}
  m_PrefabInstance: {fileID: 0}
  m_PrefabAsset: {fileID: 0}
  m_GameObject: {fileID: 0}
  m_Enabled: 1
  m_EditorHideFlags: 0
  m_Script: {fileID: 11500000, guid: 431a3eb738bfbdb4c8f4afffe54f142c, type: 3}
  m_Name: colorPreset 3
  m_EditorClassIdentifier: 
  bgSprite: {fileID: 21300000, guid: 0366b7aa06bcc4245815c8d944fcb60b, type: 3}
  white: {r: 1, g: 0.61369014, b: 0.2980392, a: 1}
  whiteBorderline: {r: 1, g: 0.43528157, b: 0.2980392, a: 1}
  black: {r: 1, g: 1, b: 1, a: 1}
  enemy: {r: 0.2735849, g: 0.2735849, b: 0.2735849, a: 1}
  enemyUnscale: {r: 1, g: 0, b: 0, a: 1}
