%YAML 1.1
%TAG !u! tag:unity3d.com,2011:
--- !u!114 &11400000
MonoBehaviour:
  m_ObjectHideFlags: 0
  m_CorrespondingSourceObject: {fileID: 0}
  m_PrefabInstance: {fileID: 0}
  m_PrefabAsset: {fileID: 0}
  m_GameObject: {fileID: 0}
  m_Enabled: 1
  m_EditorHideFlags: 0
  m_Script: {fileID: 11500000, guid: 94614a11d9f492749a517bde843eef4b, type: 3}
  m_Name: level2
  m_EditorClassIdentifier: 
  palette: {fileID: 11400000, guid: a1d557c19ae7d1d448759c8a82c98c22, type: 2}
  enemys:
  - type: 0
    count: 2
