%YAML 1.1
%TAG !u! tag:unity3d.com,2011:
--- !u!114 &11400000
MonoBehaviour:
  m_ObjectHideFlags: 0
  m_CorrespondingSourceObject: {fileID: 0}
  m_PrefabInstance: {fileID: 0}
  m_PrefabAsset: {fileID: 0}
  m_GameObject: {fileID: 0}
  m_Enabled: 1
  m_EditorHideFlags: 0
  m_Script: {fileID: 11500000, guid: a36c29df10f4c4d4b97232ce11f5a684, type: 3}
  m_Name: skin 5
  m_EditorClassIdentifier: 
  SecretUniqueKey: edd41fed-26c5-4de6-8c48-9885e66e58f7
  type: 0
  icon: {fileID: 21300000, guid: c9defa2db6b475d4383df2185d7bde35, type: 3}
  isOpenOnStart: 0
  label: {fileID: 11400000, guid: 2ee04f25c7a4c0d4099c7737474c39b5, type: 2}
  cost: 50
  useCustomColor: 1
  customColor: {r: 1, g: 1, b: 1, a: 1}
  unscaleParticles: {r: 1, g: 0.45385426, b: 0, a: 1}
